{
  "project_info": {
    "project_number": "179906829340",
    "firebase_url": "https://rn-firebase-course.firebaseio.com",
    "project_id": "rn-firebase-course",
    "storage_bucket": "rn-firebase-course.appspot.com"
  },
  "client": [
    {
      "client_info": {
        "mobilesdk_app_id": "1:179906829340:android:b359a4cf8d01cb066b53d9",
        "android_client_info": {
          "package_name": "com.compjunior.rnfirebasecourse"
        }
      },
      "oauth_client": [
        {
          "client_id": "179906829340-bcubqhfjlogm0e9gqgnatehrbm60gbap.apps.googleusercontent.com",
          "client_type": 3
        }
      ],
      "api_key": [
        {
          "current_key": "AIzaSyAbQ8PsJmeHQT6dHwOobwEq9eDQdhBYXZE"
        }
      ],
      "services": {
        "appinvite_service": {
          "other_platform_oauth_client": [
            {
              "client_id": "179906829340-bcubqhfjlogm0e9gqgnatehrbm60gbap.apps.googleusercontent.com",
              "client_type": 3
            }
          ]
        }
      }
    }
  ],
  "configuration_version": "1"
}